    {"Description": "CloudFormation template for creating an ec2 instance",
"Parameters": {
    "KeyName": {
        "Description": "Key Pair name",
        "Type": "AWS::EC2::KeyPair::KeyName",
        "Default": "App1"
    },
    "VPC": {
        "Type": "AWS::EC2::VPC::Id",
        "Default":"vpc-1dd33876"
    },
    "Subnet":{
        "Type": "AWS::EC2::Subnet::Id",
        "Default": "subnet-92e9a0e8"
    },
    "InstanceType": {
        "Description": "Select one of the possible instance types",
        "Type": "String",
        "Default": "t2.micro"
    },
    "SecurityGroup":{
         "Type": "AWS::EC2::SecurityGroup::Id",
         "Default" : "sg-0ea744ea0462a604d"
    } 
},
"Resources":{
    "Server": {
        "Type": "AWS::EC2::Instance",
        "Properties": {
            "ImageId": "ami-0d8f6eb4f641ef691",
            "InstanceType": {"Ref": "InstanceType"},
            "KeyName": {"Ref": "KeyName"},
            "SecurityGroupIds": [{"Ref": "SecurityGroup"}],
            "SubnetId": {"Ref": "Subnet"}
        }
    }
},
"Outputs": {
    "PublicName": {
        "Value": {"Fn::GetAtt": ["Server", "PublicDnsName"]},
        "Description": "Public name (connect via SSH)"
    }   
}
}
